Tratamento de Dados para Modelo Preditivo de Mortes
…
teste <- import_pop(enderecos_pop[num])

Error : Can't retrieve sheet in position 2, only 1 sheet(s) found.

teste

# A tibble: 5,511 × 1
    ...5
   <dbl>
 1 25257
 2  9770
 3 12348
 4 18685
 5 75098
 6 12891
 7  7832
 8  4980
 9 75862
10  8846
# ℹ 5,501 more rows
…
